<svg width="13" height="13" viewBox="0 0 13 13" fill="none" xmlns="http://www.w3.org/2000/svg">
<g id="IONIcon/N/notifications/default">
<path id="Vector" d="M10.8145 8.4989C10.7756 8.45202 10.7374 8.40515 10.6999 8.35992C10.1843 7.73624 9.87231 7.35984 9.87231 5.59429C9.87231 4.68023 9.65364 3.93023 9.22263 3.36773C8.90481 2.95218 8.4752 2.63695 7.90896 2.40398C7.90167 2.39993 7.89516 2.39461 7.88974 2.38828C7.68607 1.70625 7.12872 1.24945 6.50013 1.24945C5.87153 1.24945 5.31443 1.70625 5.11075 2.38757C5.10532 2.39367 5.0989 2.39882 5.09177 2.40281C3.77036 2.94679 3.12818 3.99046 3.12818 5.59359C3.12818 7.35984 2.81669 7.73624 2.3006 8.35921C2.2631 8.40445 2.2249 8.45038 2.18599 8.4982C2.08549 8.6194 2.02182 8.76685 2.0025 8.92311C1.98319 9.07937 2.00904 9.23789 2.07701 9.37991C2.22162 9.6846 2.52982 9.87374 2.88161 9.87374H10.1212C10.4714 9.87374 10.7775 9.68484 10.9225 9.38155C10.9908 9.2395 11.0169 9.08085 10.9978 8.92441C10.9786 8.76797 10.915 8.6203 10.8145 8.4989Z" fill="#718096"/>
<path id="Vector_2" d="M6.50005 11.7496C6.83873 11.7494 7.17102 11.6574 7.46168 11.4836C7.75234 11.3097 7.99053 11.0605 8.15099 10.7622C8.15854 10.7479 8.16228 10.7319 8.16182 10.7158C8.16137 10.6996 8.15674 10.6838 8.14839 10.67C8.14004 10.6561 8.12825 10.6447 8.11417 10.6367C8.10008 10.6288 8.08419 10.6246 8.06802 10.6246H4.93255C4.91636 10.6246 4.90043 10.6287 4.88632 10.6366C4.8722 10.6446 4.86038 10.656 4.852 10.6699C4.84362 10.6837 4.83897 10.6995 4.83851 10.7157C4.83804 10.7319 4.84178 10.7479 4.84935 10.7622C5.00978 11.0604 5.24794 11.3097 5.53855 11.4835C5.82917 11.6574 6.16141 11.7493 6.50005 11.7496Z" fill="#718096"/>
</g>
</svg>
